<svg width="705" height="611" viewBox="0 0 705 611" fill="none" xmlns="http://www.w3.org/2000/svg">
<mask id="mask0_1286_5372" style="mask-type:alpha" maskUnits="userSpaceOnUse" x="0" y="0" width="705" height="611">
<rect width="705" height="611" fill="#C4C4C4"/>
</mask>
<g mask="url(#mask0_1286_5372)">
<path d="M114 -1H705V611H114V-1Z" fill="#F6F3FE"/>
<path d="M1215.42 167.446C1171.14 109.244 1105.34 70.8472 1032.48 60.701C959.627 50.5547 885.687 69.4901 826.925 113.342L649.012 246.77L471.394 113.342C430.412 82.7493 381.667 64.0154 330.58 59.2238C279.493 54.4322 228.065 63.7704 182.015 86.2003C135.965 108.63 97.098 143.273 69.7344 186.276C42.3709 229.279 27.5836 278.957 27.0169 329.788C26.4502 380.618 40.1261 430.608 66.5243 474.199C92.9225 517.791 131.009 553.275 176.547 576.707C222.086 600.139 273.293 610.599 324.474 606.927C375.656 603.254 424.806 585.591 466.46 555.902L467.743 554.925C470.407 553.019 473.071 551.015 475.686 549.011L649.16 418.907L822.288 549.011C824.903 551.015 827.567 553.019 830.231 554.925L831.514 555.902C885.386 594.28 951.357 612.264 1017.47 606.591C1083.57 600.919 1145.44 571.966 1191.85 524.984C1238.26 478.001 1266.13 416.1 1270.42 350.505C1274.71 284.91 1255.12 219.964 1215.22 167.446H1215.42ZM387.766 442.562L386.186 443.784C365.427 458.871 340.843 467.946 315.179 469.993C289.515 472.041 263.781 466.981 240.852 455.38C217.923 443.778 198.7 426.09 185.331 404.293C171.962 382.495 164.973 357.446 165.144 331.941C165.315 306.437 172.64 281.481 186.3 259.861C199.96 238.242 219.418 220.809 242.501 209.51C265.583 198.211 291.382 193.49 317.016 195.875C342.651 198.261 367.112 207.657 387.667 223.017L534.152 332.838L387.766 442.562ZM1131.34 352.046C1127.99 375.594 1118.54 397.88 1103.91 416.731C1089.27 435.582 1069.95 450.353 1047.84 459.603C1025.72 468.854 1001.57 472.268 977.721 469.512C953.877 466.757 931.16 457.926 911.788 443.882L910.209 442.66L763.822 332.936L910.307 223.115C932.229 206.726 958.565 197.149 985.984 195.594C1013.4 194.04 1040.67 200.579 1064.34 214.383C1088 228.187 1107 248.636 1118.93 273.141C1130.86 297.647 1135.18 325.107 1131.34 352.046Z" fill="white"/>
<path opacity="0.2" d="M1215.42 167.446C1171.14 109.244 1105.34 70.8472 1032.48 60.701C959.627 50.5547 885.687 69.4901 826.925 113.342L649.012 246.77L471.394 113.342C430.412 82.7493 381.667 64.0154 330.58 59.2238C279.493 54.4322 228.065 63.7704 182.015 86.2003C135.965 108.63 97.098 143.273 69.7344 186.276C42.3709 229.279 27.5836 278.957 27.0169 329.788C26.4502 380.618 40.1261 430.608 66.5243 474.199C92.9225 517.791 131.009 553.275 176.547 576.707C222.086 600.139 273.293 610.599 324.474 606.927C375.656 603.254 424.806 585.591 466.46 555.902L467.743 554.925C470.407 553.019 473.071 551.015 475.686 549.011L649.16 418.907L822.288 549.011C824.903 551.015 827.567 553.019 830.231 554.925L831.514 555.902C885.386 594.28 951.357 612.264 1017.47 606.591C1083.57 600.919 1145.44 571.966 1191.85 524.984C1238.26 478.001 1266.13 416.1 1270.42 350.505C1274.71 284.91 1255.12 219.964 1215.22 167.446H1215.42ZM387.766 442.562L386.186 443.784C365.427 458.871 340.843 467.946 315.179 469.993C289.515 472.041 263.781 466.981 240.852 455.38C217.923 443.778 198.7 426.09 185.331 404.293C171.962 382.495 164.973 357.446 165.144 331.941C165.315 306.437 172.64 281.481 186.3 259.861C199.96 238.242 219.418 220.809 242.501 209.51C265.583 198.211 291.382 193.49 317.016 195.875C342.651 198.261 367.112 207.657 387.667 223.017L534.152 332.838L387.766 442.562ZM1131.34 352.046C1127.99 375.594 1118.54 397.88 1103.91 416.731C1089.27 435.582 1069.95 450.353 1047.84 459.603C1025.72 468.854 1001.57 472.268 977.721 469.512C953.877 466.757 931.16 457.926 911.788 443.882L910.209 442.66L763.822 332.936L910.307 223.115C932.229 206.726 958.565 197.149 985.984 195.594C1013.4 194.04 1040.67 200.579 1064.34 214.383C1088 228.187 1107 248.636 1118.93 273.141C1130.86 297.647 1135.18 325.107 1131.34 352.046Z" fill="url(#paint0_linear_1286_5372)"/>
</g>
<defs>
<linearGradient id="paint0_linear_1286_5372" x1="907.055" y1="405.847" x2="77.4831" y2="-2.22868" gradientUnits="userSpaceOnUse">
<stop stop-color="#FC2659"/>
<stop offset="0.526042" stop-color="#7759C2"/>
<stop offset="0.984375" stop-color="white"/>
</linearGradient>
</defs>
</svg>