<svg width="32" height="32" viewBox="0 0 32 32" fill="none" xmlns="http://www.w3.org/2000/svg">
<g clip-path="url(#clip0_3386_1723)">
<path d="M22.0591 3.98606L24.7095 1.33563C25.1316 0.917609 25.7016 0.683105 26.2956 0.683105C26.8896 0.683105 27.4596 0.917609 27.8817 1.33563L30.7547 4.20867C31.1728 4.63072 31.4073 5.20073 31.4073 5.79476C31.4073 6.38878 31.1728 6.95879 30.7547 7.38084L28.1043 10.0243" fill="#CFC0FF"/>
<path d="M15.0192 23.1096L10.9496 19.0331L12.6192 19.0748C13.5021 19.1004 14.3809 18.9451 15.2015 18.6185C16.0222 18.2919 16.7674 17.8009 17.3913 17.1757L26.4974 8.04871L28.2852 9.83653L15.0192 23.1096Z" fill="#E5E0FC"/>
<path d="M15.0191 23.1096L7.42957 24.2922L8.84174 17.0713L15.0191 23.1096Z" fill="#CFC0FF"/>
<path d="M2.50438 31.2974C3.49945 31.2974 4.30611 30.4907 4.30611 29.4956C4.30611 28.5006 3.49945 27.6939 2.50438 27.6939C1.5093 27.6939 0.702637 28.5006 0.702637 29.4956C0.702637 30.4907 1.5093 31.2974 2.50438 31.2974Z" fill="#AC7FFF"/>
<path d="M31.1374 3.7565L28.2435 0.862591C27.6885 0.312036 26.9384 0.00311279 26.1566 0.00311279C25.3748 0.00311279 24.6247 0.312036 24.0696 0.862591L21.4053 3.52694L10.4348 14.5252C10.3053 14.6555 10.2325 14.8319 10.2325 15.0156C10.2325 15.1994 10.3053 15.3757 10.4348 15.5061C10.5633 15.6371 10.7383 15.7122 10.9218 15.7148C11.0138 15.7144 11.1049 15.6957 11.1897 15.6599C11.2744 15.6241 11.3513 15.5718 11.4157 15.5061L21.9201 5.00172L27.4853 10.5669C27.5503 10.6314 27.6274 10.6824 27.7121 10.717C27.7969 10.7517 27.8876 10.7692 27.9792 10.7687C28.0707 10.7692 28.1615 10.7517 28.2462 10.717C28.331 10.6824 28.4081 10.6314 28.4731 10.5669L31.1374 7.89563C31.6808 7.34384 31.9854 6.60049 31.9854 5.82607C31.9854 5.05165 31.6808 4.30829 31.1374 3.7565ZM30.1496 6.9565L27.9792 9.13389L22.8801 4.02085L25.0435 1.84346C25.3367 1.55247 25.7331 1.38917 26.1461 1.38917C26.5592 1.38917 26.9556 1.55247 27.2487 1.84346L30.1357 4.73737C30.2845 4.88093 30.4031 5.05278 30.4845 5.24282C30.5659 5.43287 30.6085 5.63727 30.6098 5.84401C30.6111 6.05075 30.5711 6.25567 30.492 6.44672C30.413 6.63777 30.2966 6.81109 30.1496 6.9565Z" fill="#341472"/>
<path d="M9.04345 16.5843L8.91823 16.5287H8.86258C8.83951 16.5253 8.81607 16.5253 8.79301 16.5287C8.74456 16.5217 8.69537 16.5217 8.64692 16.5287C8.60545 16.5221 8.56318 16.5221 8.52171 16.5287L8.40345 16.5774L8.28519 16.6539C8.28519 16.6539 8.24345 16.6539 8.22258 16.6957C8.20171 16.7374 8.22258 16.7304 8.22258 16.7443C8.19076 16.7793 8.16491 16.8193 8.14605 16.8626C8.12178 16.9016 8.10305 16.9437 8.0904 16.9878C8.0904 16.9878 8.0904 16.9878 8.0904 17.0435L6.4904 24.3478C6.46831 24.4506 6.46978 24.557 6.4947 24.659C6.51961 24.7611 6.56734 24.8562 6.63428 24.9372C6.70122 25.0182 6.78564 25.083 6.88121 25.1267C6.97677 25.1704 7.081 25.1919 7.18605 25.1896H7.2904L14.9426 23.993H15.0121L15.1443 23.9443C15.1869 23.9213 15.2266 23.8933 15.2626 23.8609L15.3252 23.8191L25.6974 13.3635C25.8113 13.2304 25.8709 13.0592 25.8641 12.8841C25.8574 12.7091 25.7848 12.543 25.6609 12.4191C25.537 12.2952 25.3709 12.2226 25.1958 12.2159C25.0208 12.2091 24.8496 12.2686 24.7165 12.3826L14.8104 22.2609L9.24519 16.6957H9.17562L9.04345 16.5843ZM9.12692 18.5809L13.3356 22.7548L8.06258 23.6522L9.12692 18.5809Z" fill="#341472"/>
<path d="M27.8679 14.8731C27.6834 14.8731 27.5064 14.9463 27.376 15.0768C27.2455 15.2073 27.1722 15.3842 27.1722 15.5687V28.7861H4.91134C4.79744 28.3794 4.582 28.0084 4.28525 27.7078C3.98111 27.4225 3.60657 27.2233 3.20003 27.1304V4.86958H16.6957C16.8802 4.86958 17.0571 4.79628 17.1876 4.66582C17.318 4.53536 17.3913 4.35842 17.3913 4.17392C17.3913 3.98943 17.318 3.81248 17.1876 3.68202C17.0571 3.55156 16.8802 3.47827 16.6957 3.47827H2.50438C2.31988 3.47827 2.14294 3.55156 2.01248 3.68202C1.88202 3.81248 1.80873 3.98943 1.80873 4.17392V27.1304C1.40436 27.2338 1.03468 27.4427 0.737423 27.7357C0.466784 28.0055 0.261498 28.3337 0.137289 28.6952C0.0130808 29.0566 -0.0267553 29.4417 0.0208324 29.8209C0.0684202 30.2001 0.202169 30.5634 0.411835 30.8829C0.6215 31.2025 0.90152 31.4698 1.23045 31.6644C1.55937 31.859 1.92848 31.9758 2.30949 32.0057C2.6905 32.0357 3.07331 31.978 3.4286 31.8372C3.78389 31.6963 4.10223 31.476 4.35923 31.1932C4.61624 30.9103 4.8051 30.5724 4.91134 30.2052H27.8679C28.0524 30.2052 28.2293 30.1319 28.3598 30.0015C28.4902 29.871 28.5635 29.6941 28.5635 29.5096V15.5965C28.5673 15.5029 28.552 15.4094 28.5188 15.3218C28.4855 15.2341 28.4348 15.1541 28.3699 15.0865C28.3049 15.019 28.2269 14.9652 28.1407 14.9285C28.0544 14.8919 27.9616 14.873 27.8679 14.8731ZM3.29742 30.2817C3.14106 30.4391 2.94151 30.5464 2.72406 30.5902C2.50662 30.6339 2.28108 30.6121 2.07603 30.5276C1.87099 30.443 1.69567 30.2995 1.5723 30.1151C1.44893 29.9308 1.38308 29.714 1.38308 29.4922C1.38308 29.2704 1.44893 29.0536 1.5723 28.8692C1.69567 28.6849 1.87099 28.5414 2.07603 28.4568C2.28108 28.3722 2.50662 28.3504 2.72406 28.3942C2.94151 28.438 3.14106 28.5453 3.29742 28.7026C3.50605 28.914 3.62345 29.1987 3.62438 29.4957C3.62451 29.6418 3.59568 29.7865 3.53956 29.9214C3.48344 30.0563 3.40115 30.1788 3.29742 30.2817Z" fill="#341472"/>
</g>
<defs>
<clipPath id="clip0_3386_1723">
<rect width="32" height="32" fill="white"/>
</clipPath>
</defs>
</svg>
