<svg width="27" height="26" viewBox="0 0 27 26" fill="none" xmlns="http://www.w3.org/2000/svg">
<g clip-path="url(#clip0_1095_13183)">
<path d="M7.5486 10.0208H0.777771" stroke="#171321" stroke-width="0.541667" stroke-miterlimit="10"/>
<path d="M10.2569 10.0208H17.9757C19.2459 10.0208 20.2778 11.0527 20.2778 12.3229C20.2778 13.5931 19.2459 14.625 17.9757 14.625H9.57985C8.30965 14.625 7.27777 15.6569 7.27777 16.9271C7.27777 18.1973 8.30965 19.2292 9.57985 19.2292H17.5694" stroke="#171321" stroke-width="0.541667" stroke-miterlimit="10"/>
<path d="M20.2778 19.2292H26.7778" stroke="#171321" stroke-width="0.541667" stroke-miterlimit="10"/>
<path d="M7.27777 6.13979V1.08333" stroke="#171321" stroke-width="0.541667" stroke-miterlimit="10"/>
<path d="M20.2778 6.22917V1.08333" stroke="#171321" stroke-width="0.541667" stroke-miterlimit="10"/>
<path d="M8.76736 11.375C9.51525 11.375 10.1215 10.7687 10.1215 10.0208C10.1215 9.27295 9.51525 8.66666 8.76736 8.66666C8.01947 8.66666 7.41319 9.27295 7.41319 10.0208C7.41319 10.7687 8.01947 11.375 8.76736 11.375Z" stroke="#171321" stroke-width="0.541667" stroke-miterlimit="10"/>
<path d="M18.7882 20.5833C19.5361 20.5833 20.1424 19.9771 20.1424 19.2292C20.1424 18.4813 19.5361 17.875 18.7882 17.875C18.0403 17.875 17.434 18.4813 17.434 19.2292C17.434 19.9771 18.0403 20.5833 18.7882 20.5833Z" stroke="#171321" stroke-width="0.541667" stroke-miterlimit="10"/>
<path d="M24.8819 19.2292V21.3958C24.8819 23.1915 23.4276 24.6458 21.6319 24.6458H2.6736V12.4583" stroke="#171321" stroke-width="0.541667" stroke-miterlimit="10"/>
<path d="M2.6736 9.75V4.33333H24.8819V16.7917" stroke="#171321" stroke-width="0.541667" stroke-miterlimit="10"/>
</g>
<defs>
<clipPath id="clip0_1095_13183">
<rect width="26" height="26" fill="white" transform="translate(0.777771)"/>
</clipPath>
</defs>
</svg>
