<svg width="27" height="26" viewBox="0 0 27 26" fill="none" xmlns="http://www.w3.org/2000/svg">
<g clip-path="url(#clip0_1095_13189)">
<path d="M22.9533 11.4671C22.1977 16.0252 18.2408 19.5 13.4688 19.5C9.38459 19.5 5.89355 16.9515 4.50146 13.3602" stroke="#171321" stroke-width="0.541667" stroke-miterlimit="10"/>
<path d="M3.96521 8.42562C4.66667 3.80792 8.65604 0.270832 13.4688 0.270832C17.645 0.270832 21.201 2.93583 22.5281 6.65708" stroke="#171321" stroke-width="0.541667" stroke-miterlimit="10"/>
<path d="M7.91669 17.875V25.5342L13.3334 22.4792L18.75 25.5342V17.875" stroke="#171321" stroke-width="0.541667" stroke-miterlimit="10"/>
<path d="M3.85417 11.375C4.60205 11.375 5.20833 10.7687 5.20833 10.0208C5.20833 9.27295 4.60205 8.66666 3.85417 8.66666C3.10628 8.66666 2.5 9.27295 2.5 10.0208C2.5 10.7687 3.10628 11.375 3.85417 11.375Z" stroke="#171321" stroke-width="0.541667" stroke-miterlimit="10"/>
<path d="M23.0834 11.375C23.8312 11.375 24.4375 10.7687 24.4375 10.0208C24.4375 9.27295 23.8312 8.66666 23.0834 8.66666C22.3355 8.66666 21.7292 9.27295 21.7292 10.0208C21.7292 10.7687 22.3355 11.375 23.0834 11.375Z" stroke="#171321" stroke-width="0.541667" stroke-miterlimit="10"/>
<path d="M10.3542 10.0208L12.5209 12.1875L17.3959 7.3125" stroke="#171321" stroke-width="0.541667" stroke-miterlimit="10"/>
<path d="M24.4375 10.0208H26.3333" stroke="#171321" stroke-width="0.541667" stroke-miterlimit="10"/>
<path d="M2.50001 10.0208H0.333344" stroke="#171321" stroke-width="0.541667" stroke-miterlimit="10"/>
</g>
<defs>
<clipPath id="clip0_1095_13189">
<rect width="26" height="26" fill="white" transform="translate(0.333344)"/>
</clipPath>
</defs>
</svg>
