<svg width="102" height="24" viewBox="0 0 102 24" fill="none" xmlns="http://www.w3.org/2000/svg">
<g clip-path="url(#clip0_854_2295)">
<path d="M73.6856 7.49235V12.7133L78.2154 7.49235H82.6907L77.6287 12.9272L82.7452 21.6684H78.2699L75.6595 16.8703C75.1227 15.9106 74.6634 15.5058 74.2722 15.6468C73.8811 15.7879 73.6856 16.0016 73.6856 16.2836V18.2574V21.6684H69.9562V3.33545H71.8755C72.3713 3.33545 72.7988 3.51276 73.1536 3.86744C73.5082 4.2222 73.6856 4.63163 73.6856 5.09541V7.49231L73.6856 7.49235ZM47.3878 21.6684C46.2144 21.7413 44.9455 21.723 43.5764 21.6139C42.2075 21.5093 41.5254 20.636 41.5254 19.0033V10.1029H39.3479V9.35685C39.3479 8.82485 39.5253 8.38828 39.88 8.04706C40.2348 7.7106 40.6623 7.5422 41.1581 7.5422H41.5254V3.3355H43.4446C43.9085 3.3355 44.3179 3.5128 44.6726 3.86749C45.0273 4.22224 45.2048 4.64977 45.2048 5.14551V7.54227H48.8127V8.2883C48.8127 8.82016 48.6352 9.25687 48.2806 9.59809C47.9258 9.93455 47.4981 10.1029 47.0025 10.1029H45.2048V17.9937C45.2048 18.5985 45.5595 18.8987 46.2689 18.8987H47.3878V21.6684L47.3878 21.6684ZM48.1316 21.6684V14.7918C48.1316 13.4093 48.3361 12.2449 48.7456 11.3035C49.1549 10.3621 49.7142 9.60718 50.4238 9.03859C51.0968 8.5066 51.8882 8.11546 52.7932 7.86517C53.6984 7.61508 54.6306 7.49232 55.5903 7.49232H55.8585H58.4564C58.0069 7.79564 57.5891 8.16434 57.2088 8.60492C56.5258 9.39645 56.0695 10.3077 55.7811 11.2761H54.8989C53.8667 11.2761 53.1025 11.5266 52.6068 12.0222C52.1112 12.5178 51.8608 13.3001 51.8608 14.3688V21.6684H48.1315L48.1316 21.6684ZM59.9654 13.1409H65.4003C65.3321 12.1813 65.082 11.4718 64.6544 11.0079C64.1951 10.5122 63.5357 10.2621 62.6852 10.2621C61.903 10.2621 61.2617 10.5122 60.766 11.0079C60.2656 11.5082 60.0019 12.2177 59.9654 13.1409H59.9654ZM66.36 17.2977H69.0251C68.634 18.7896 67.8881 19.9266 66.7875 20.7089C65.6868 21.5274 64.2997 21.9368 62.6305 21.9368C60.6068 21.9368 59.024 21.2773 57.887 19.9629C56.75 18.685 56.1816 16.8567 56.1816 14.4734C56.1816 12.1995 56.7319 10.4213 57.8325 9.14323C58.9694 7.82896 60.5522 7.16944 62.576 7.16944C64.7091 7.16944 66.36 7.81067 67.5334 9.08869C68.6704 10.403 69.2388 12.2313 69.2388 14.5781V14.9511V15.1648C69.2388 15.3422 69.2207 15.465 69.1842 15.5378H59.9654C60.0018 16.6384 60.2656 17.4571 60.766 17.9891C61.2253 18.5577 61.9211 18.8441 62.8444 18.8441C63.4492 18.8441 63.9631 18.7212 64.3906 18.4712C64.4952 18.4348 64.5953 18.3711 64.6817 18.2847C64.7727 18.1937 64.8683 18.0983 64.9773 17.9891C65.0091 17.8845 65.1457 17.7436 65.3731 17.5661C65.6051 17.3887 65.937 17.2977 66.36 17.2977L66.36 17.2977Z" fill="#244D85"/>
<path d="M87.4425 4.01532H86.5715L83.7654 7.02153L84.2977 7.55387L86.5032 5.2169L86.469 21.6909H87.4425V4.01539V4.01532ZM95.4851 21.9984C96.766 21.9984 97.8163 21.7208 98.6359 21.1658C99.4556 20.611 100.109 19.8934 100.596 19.014C101.082 18.1345 101.42 17.1525 101.607 16.0681C101.795 14.9838 101.889 13.9121 101.889 12.8532C101.889 11.7944 101.795 10.7226 101.607 9.63829C101.42 8.55387 101.082 7.5719 100.596 6.69242C100.109 5.81292 99.4556 5.0954 98.6359 4.54048C97.8163 3.98564 96.766 3.70801 95.4851 3.70801C94.2042 3.70801 93.1538 3.98564 92.3343 4.54048C91.5145 5.0954 90.861 5.81292 90.3744 6.69242C89.888 7.57191 89.5505 8.55388 89.3627 9.63829C89.1749 10.7227 89.0808 11.7944 89.0808 12.8532C89.0808 13.9121 89.1749 14.9837 89.3627 16.0681C89.5505 17.1525 89.888 18.1345 90.3744 19.014C90.861 19.8934 91.5145 20.611 92.3343 21.1658C93.1538 21.7208 94.2042 21.9984 95.4851 21.9984ZM95.4851 21.153C94.375 21.153 93.4699 20.8881 92.7698 20.3589C92.0695 19.8297 91.5187 19.1548 91.1174 18.3351C90.716 17.5155 90.4386 16.6187 90.2848 15.6453C90.1313 14.6719 90.0544 13.7412 90.0544 12.8531C90.0544 11.9652 90.1313 11.0344 90.2848 10.061C90.4386 9.08763 90.716 8.19087 91.1174 7.37117C91.5185 6.55153 92.0695 5.87669 92.7698 5.34745C93.4699 4.81829 94.375 4.5533 95.4851 4.5533C96.5951 4.5533 97.5003 4.81829 98.2005 5.34745C98.9007 5.87669 99.4515 6.55153 99.8527 7.37117C100.254 8.19087 100.531 9.08763 100.685 10.061C100.839 11.0344 100.916 11.9652 100.916 12.8531C100.916 13.7412 100.839 14.6719 100.685 15.6453C100.531 16.6187 100.254 17.5155 99.8527 18.3351C99.4513 19.1548 98.9007 19.8297 98.2005 20.3589C97.5003 20.8881 96.5951 21.153 95.4851 21.153Z" fill="#00BFFF"/>
<path fill-rule="evenodd" clip-rule="evenodd" d="M14.4166 5.37949C12.6473 4.48149 10.5105 4.64285 8.9189 5.84617C7.70592 6.7635 6.9654 8.16835 6.87123 9.68204L6.81523 10.5807L5.92103 10.6871C2.57662 11.0844 0 13.9312 0 17.3219C0 21.0096 2.99007 23.9999 6.67777 23.9999H32.73C36.4179 23.9999 39.4081 21.0097 39.4081 17.3219C39.4081 14.4887 37.6156 11.9601 34.9488 11.0215L34.2162 10.7636L34.2277 9.98709C34.2987 5.18589 30.8585 0.990989 26.1181 0.150156C22.0408 -0.573231 17.8959 1.36383 15.8423 4.95293L15.3323 5.8443L14.4165 5.37949L14.4166 5.37949Z" fill="#00BFFF"/>
<path fill-rule="evenodd" clip-rule="evenodd" d="M15.7734 8.24743C16.6462 3.49415 21.2071 0.377671 25.929 1.21498C30.8485 2.08805 34.0057 6.89774 32.9425 11.73C35.9358 11.842 38.3278 14.3034 38.3278 17.3237C38.3278 20.4157 35.8214 22.9221 32.7294 22.9221C22.8946 22.9221 13.4935 22.9221 6.67721 22.9221C3.58552 22.9221 1.0791 20.4157 1.0791 17.3237C1.0791 13.4692 4.8772 10.8064 8.46789 12.018C7.45562 10.2329 7.92458 7.95336 9.56958 6.7093C11.6389 5.14474 14.6612 5.87676 15.7735 8.24742L15.7734 8.24743Z" fill="url(#paint0_linear_854_2295)"/>
<path fill-rule="evenodd" clip-rule="evenodd" d="M3.68213 18.0858L13.284 10.6178L18.2354 14.7313L25.8531 7.64697L35.9875 17.2567C35.3568 19.7676 33.4747 21.5895 31.2502 21.5895C22.5323 21.5895 14.1986 21.5895 8.15658 21.5895C6.18555 21.5895 4.48317 20.1588 3.68218 18.0858L3.68213 18.0858Z" fill="#244D85"/>
<path fill-rule="evenodd" clip-rule="evenodd" d="M5.77148 17.4502C9.22933 15.4008 11.8738 14.9783 13.7069 16.179C14.3193 15.1075 15.4516 14.6717 16.9783 14.7174L13.2583 11.627C10.7628 13.5681 8.26713 15.5091 5.7715 17.4502H5.77148ZM31.715 14.3829L25.8883 8.93579C22.1582 12.4122 18.4284 15.8884 14.6983 19.3648C20.9326 15.8148 23.0893 13.3135 25.5524 15.4935C26.7036 14.0301 28.6338 13.5104 31.715 14.3829L31.715 14.3829Z" fill="white"/>
</g>
<defs>
<linearGradient id="paint0_linear_854_2295" x1="19.7034" y1="22.922" x2="19.7034" y2="0.377653" gradientUnits="userSpaceOnUse">
<stop stop-color="#00BFFF"/>
<stop offset="0.490196" stop-color="#00BFFF"/>
<stop offset="1" stop-color="white"/>
</linearGradient>
<clipPath id="clip0_854_2295">
<rect width="101.89" height="24" fill="white"/>
</clipPath>
</defs>
</svg>
